[
   {
      "t": "text",         
      "q": [
         { 
            "q": "what is the name of Great Britain's capital?",
            "a": [ "kaohsiung", "london", "budapest", "los angeles" ],
            "c": "london"
         },
         { 
            "q": "which of the following is NOT a musical instrument?",
            "a": [ "tonfa", "clarinet", "drums", "guitar" ],
            "c": "tonfa"
         },
         { 
            "q": "pick the odd one out here",
            "a": [ "cupcake", "chocolate parfait", "coca cola", "strawberry froyo" ],
            "c": "coca cola"
         }
      ]
   },
   {
      "t": "photo",
      "q": [
         { 
            "q": "what is this?",
            "a": [ "tennis.jpg", "flamingo.jpg", "bridge.jpg", "bike.jpg" ],
            "c": "tennis.jpg"
         },
         { 
            "q": "what is the name of this beautiful bird?",
            "a": [ "flamingo.jpg", "tennis.jpg", "bridge.jpg", "bike.jpg" ],
            "c": "flamingo.jpg"
         },
         { 
            "q": "woo~ What is that?",
            "a": [ "tennis.jpg", "flamingo.jpg", "bike.jpg", "bridge.jpg" ],
            "c": "bridge.jpg"
         }
      ]
   }
]